<?xml version="1.0" encoding="utf-8"?>
<!-- Generator: Adobe Illustrator 18.1.1, SVG Export Plug-In . SVG Version: 6.00 Build 0)  -->
<!DOCTYPE svg PUBLIC "-//W3C//DTD SVG 1.1//EN" "http://www.w3.org/Graphics/SVG/1.1/DTD/svg11.dtd">
<svg version="1.1" id="Layer_1" xmlns="http://www.w3.org/2000/svg" xmlns:xlink="http://www.w3.org/1999/xlink" x="0px" y="0px"
	 viewBox="0 0 848 442" enable-background="new 0 0 848 442" xml:space="preserve">
<g>
	<path fill="#1A1A18" d="M119.6,228.9c0,0.1,0,0.2,0.1,0.2c0.2,0.5,0.5,0.8,1,1c0,0,0,0.1,0.1,0.1c0.2,0.1,0.5,0.1,0.7,0.1
		c0.2,0,0.5-0.1,0.7-0.2h0.1c0.6-0.2,1-0.9,1.1-1.6l21.7-51.1c0.4-1-0.1-2.2-1-2.6c-1-0.5-2.2,0-2.5,1l-20.1,47.6l-20-47.6
		c-0.4-1-1.6-1.4-2.6-1c-1,0.4-1.4,1.6-1,2.6L119.6,228.9L119.6,228.9z"/>
	<path fill="#1A1A18" d="M172.4,228.2v-52.1c0-1-0.9-1.9-2-1.9c-1,0-1.9,0.9-1.9,1.9v52.1c0,1,0.9,1.9,1.9,1.9
		C171.5,230.1,172.4,229.3,172.4,228.2z"/>
	<path fill="#1A1A18" d="M205.1,230.1c1,0,1.9-0.9,1.9-1.9v-45.8l33.6,46.6c0.1,0.2,0.2,0.2,0.3,0.3c0.4,0.5,0.9,0.7,1.5,0.7
		c1.1,0,2-0.9,2-1.9v-51.5c0-1-0.9-1.9-2-1.9c-1,0-1.9,0.9-1.9,1.9v45.5l-33.9-47c-0.6-0.9-1.8-1-2.7-0.5c-0.7,0.6-1,1.4-0.7,2.2
		v51.3C203.2,229.3,204,230.1,205.1,230.1z"/>
	<path fill="#1A1A18" d="M290.8,230.1c1,0,1.9-0.9,1.9-1.9v-50.1h16.9c1,0,1.9-0.9,1.9-2c0-1-0.9-1.9-1.9-1.9H272
		c-1,0-1.9,0.9-1.9,1.9c0,1.1,0.9,2,1.9,2h16.9v50.1C288.9,229.3,289.8,230.1,290.8,230.1z"/>
	<path fill="#1A1A18" d="M327.6,230.1c0.8,0,1.5-0.5,1.8-1.3l5-13.2H360l5,13.2c0.3,0.8,1.1,1.3,1.8,1.3c0.2,0,0.4-0.1,0.7-0.1
		c1-0.4,1.4-1.6,1-2.6l-19.4-51.8c-0.2-0.7-1-1.2-1.9-1.2c-0.8,0-1.6,0.5-1.9,1.2l-19.4,51.8c-0.4,1,0.2,2.2,1.1,2.6
		C327.2,230.1,327.5,230.1,327.6,230.1z M347.2,181.8l11.3,30h-22.6L347.2,181.8z"/>
	<path fill="#1A1A18" d="M415.7,177.4c6,0,11.5,2.1,15.6,5.4c1,0.6,2.2,0.5,2.8-0.3c0.7-0.8,0.5-2.2-0.2-2.7
		c-5-3.9-11.2-6.3-18.2-6.3c-16.1,0-29.1,12.7-29.1,28.3c0,15.8,13,28.3,29.1,28.4c6.9,0,13.1-2.2,18.1-6.1c0.4-0.3,0.6-0.9,0.7-1.4
		v-0.3v-19.2c0-1-0.8-1.9-1.8-2h-0.2h-17.3c-1.1,0-2,0.9-2,2c0,1.1,0.9,1.9,2,1.9h15.3v16.4c-4.2,3-9.4,4.8-14.8,4.8
		c-14,0-25.2-10.9-25.2-24.5C390.5,188.3,401.7,177.4,415.7,177.4z"/>
	<path fill="#1A1A18" d="M495.6,178.2c1.1,0,1.9-0.9,1.9-2c0-1-0.8-1.9-1.9-1.9h-28.6h-0.2c-1,0-1.9,0.9-1.9,1.9v52.1
		c0,1,0.8,1.8,1.8,1.9h0.2h0.2h28.6c1.1,0,1.9-0.9,1.9-1.9c0-1.1-0.8-2-1.9-2h-26.8v-22h23.4c1,0,1.9-0.9,1.9-1.9c0-1.1-0.9-2-1.9-2
		h-23.4v-22.1H495.6z"/>
	<path fill="#1A1A18" d="M585.9,188.2c0-7.7-6.2-14-13.9-14h-12.2h-0.2c-1,0-1.9,0.9-1.9,1.9v52.1c0,1,0.8,1.9,1.8,1.9h0.1h0.2h15.8
		c8.8,0,16-7.1,16-16c0-7-4.6-12.9-11-15.1C583.7,196.5,585.9,192.6,585.9,188.2z M587.6,214.2c-0.1,6.7-5.4,12.1-12.1,12.1h-14
		v-24.1h14C582.1,202.1,587.5,207.5,587.6,214.2z M572,198.1h-10.5v-20H572c5.5,0,10,4.5,10,10.1C581.9,193.7,577.5,198.1,572,198.1
		z"/>
	<path fill="#1A1A18" d="M619.4,228.2v-52.1c0-1-0.9-1.9-2-1.9c-1,0-1.9,0.9-1.9,1.9v52.1c0,1,0.9,1.9,1.9,1.9
		C618.5,230.1,619.4,229.3,619.4,228.2z"/>
	<path fill="#1A1A18" d="M651.9,174.4c-1,0-1.9,0.9-1.9,2v51.8c0,1,0.9,1.9,1.9,1.9c1.1,0,2-0.9,2-1.9v-14l12.3-12.3l21.7,27.5
		c0.4,0.6,0.9,0.7,1.4,0.7c0.5,0,0.9-0.1,1.3-0.4c0.8-0.8,1-1.9,0.3-2.8L669,199.2l21.4-21.4c0.8-0.8,0.8-2.1,0-2.8
		c-0.6-0.7-1.9-0.7-2.7,0l-33.8,33.8v-32.3C653.9,175.3,653,174.4,651.9,174.4z"/>
	<path fill="#1A1A18" d="M748.5,178.2c1.1,0,1.9-0.9,1.9-2c0-1-0.8-1.9-1.9-1.9h-28.6h-0.2c-1,0-1.9,0.9-1.9,1.9v52.1
		c0,1,0.8,1.8,1.8,1.9h0.2h0.2h28.6c1.1,0,1.9-0.9,1.9-1.9c0-1.1-0.8-2-1.9-2h-26.8v-22h23.4c1,0,1.9-0.9,1.9-1.9c0-1.1-0.9-2-1.9-2
		h-23.4v-22.1H748.5z"/>
	<path fill="#1A1A18" d="M205,367h-0.2c-0.1,0-0.5,0.2-1.2-1c-0.6-1.1-1.2-3.6-1.2-8.1c0-6.1-3.8-10-7.3-12c-1-0.6-1.9-1-2.9-1.4
		c6.5-1.8,11.2-7.7,11.2-14.9c0-8.6-7-15.6-15.6-15.6h-16.2h-0.1h-0.1c-0.6,0-1,0.5-1,1v53.8c0,0.6,0.5,1,1,1s1-0.5,1-1v-23.8h15.2
		c0,0,0.8,0.1,2.1,0.5c1.8,0.6,4.5,1.7,6.7,3.7c2.2,2,4,4.7,4,8.6c0,4.8,0.6,7.4,1.5,9c0.8,1.6,2.1,2.2,2.9,2.2c0.4,0,0.6,0,0.7-0.2
		c0.6-0.1,0.8-0.7,0.6-1.2C206.1,367.2,205.5,366.9,205,367z M188,343h-0.2h-15.4v-27h15.4c7.4,0,13.5,6.1,13.5,13.6
		S195.4,342.9,188,343z"/>
	<path fill="#1A1A18" d="M263,316c0.6,0,1-0.4,1-1c0-0.6-0.4-1-1-1h-29.7h-0.1h-0.1c-0.6,0.1-1,0.6-1,1v53.8c0,0.6,0.3,1,1,1h0.2
		h0.1H263c0.6,0,1-0.5,1-1c0-0.6-0.4-1-1-1h-28.8v-25h25.4c0.6,0,1-0.4,1-1c0-0.5-0.4-1-1-1h-25.4V316H263z"/>
	<path fill="#1A1A18" d="M322.7,344.6c-3.7-2.4-8.6-3.9-14.3-5h-0.2c-5.1-1-9.5-2.4-12.6-4.5c-3-2.1-4.7-4.6-4.7-7.8
		c0-3.3,1.8-6.3,4.9-8.5c3.1-2.2,7.4-3.7,12.2-3.7c6.7,0,11.8,3.3,16.3,6.2c0.4,0.2,1,0.2,1.2-0.2c0.3-0.5,0.2-1-0.2-1.3
		c-4.5-3-10-6.5-17.3-6.5c-10.2,0-18.9,6.1-19,14.1c0,4,2.2,7.1,5.5,9.3c3.4,2.2,8,3.8,13.3,4.7l0.2,0.1c5.6,1,10.3,2.5,13.6,4.7
		c3.3,2.2,5.1,4.9,5.1,8.5c0,3.6-2,6.9-5.4,9.3c-3.4,2.5-8,4-13.2,4c-7.8,0-15-4.2-19.4-7.7c-0.4-0.3-1-0.2-1.3,0.1
		c-0.3,0.4-0.2,1,0.2,1.4c4.6,3.7,12.2,8.1,20.6,8.1c11,0,20.3-6.5,20.4-15.2C328.6,350.3,326.3,347,322.7,344.6z"/>
	<path fill="#1A1A18" d="M388.7,314h-39c-0.6,0-1,0.5-1,1c0,0.6,0.5,1,1,1h18.5v52.9c0,0.6,0.4,1,1,1c0.5,0,1-0.5,1-1V316h18.4
		c0.6,0,1-0.4,1-1C389.8,314.5,389.4,314,388.7,314z"/>
	<path fill="#1A1A18" d="M436,313.2c-15.1,0-27.2,12.9-27.3,28.8c0.1,16,12.2,28.9,27.3,28.9c15.1,0,27.2-12.9,27.4-28.9
		C463.1,326.1,451.1,313.2,436,313.2z M436,368.8c-13.8-0.2-25.1-12-25.1-26.7c0-14.9,11.4-26.7,25.1-26.7c13.7,0,25,11.9,25.1,26.7
		C461,356.8,449.6,368.6,436,368.8z"/>
	<path fill="#1A1A18" d="M532.3,314.1c-0.1,0-0.2,0-0.2,0.1c-0.2,0-0.5,0.2-0.6,0.3L510,344.2l-21.4-29.7c-0.2-0.2-0.5-0.3-0.7-0.3
		c-0.1-0.1-0.2-0.1-0.2-0.1c-0.6,0-1,0.6-1,1v53.7c0,0.6,0.5,1,1,1c0.6,0,1-0.5,1-1V318l20.5,28.4c0.2,0.2,0.5,0.4,0.9,0.4h0.2
		c0.3,0,0.6-0.2,0.9-0.4l20.4-28.3v50.8c0,0.6,0.5,1,1,1c0.6,0,1-0.5,1-1v-53.7C533.4,314.6,533,314.1,532.3,314.1z"/>
	<path fill="#1A1A18" d="M586,313.2c-15.1,0-27.2,12.9-27.3,28.8c0.1,16,12.2,28.9,27.3,28.9c15.1,0,27.2-12.9,27.4-28.9
		C613.1,326.1,601.1,313.2,586,313.2z M586,368.8c-13.8-0.2-25.1-12-25.1-26.7c0-14.9,11.4-26.7,25.1-26.7c13.7,0,25,11.9,25.1,26.7
		C611,356.8,599.6,368.6,586,368.8z"/>
	<path fill="#1A1A18" d="M649.2,314h-10.6h-0.1c-0.6,0-1,0.5-1,1v53.8c0,0.6,0.4,1,1,1h0.1h10.6c15.5,0,28-12.5,28-28
		C677.1,326.5,664.7,314,649.2,314z M649.2,367.9h-9.8V316h9.8c14.4,0,25.9,11.7,26,25.9C675.1,356.2,663.6,367.7,649.2,367.9z"/>
	<rect x="95" y="270.3" fill="#1A1A18" width="658" height="4"/>
	<path fill="#1A1A18" d="M38.6,12.7c-3.8,0-7.5,1.4-10.5,3.8c-6.8,5.8-7.6,16-1.8,22.7c3.1,3.6,7.6,5.7,12.3,5.7
		c3.8,0,7.5-1.4,10.5-3.8c3.3-2.8,5.3-6.7,5.6-11c0.3-4.3-1-8.5-3.8-11.7C47.8,14.8,43.3,12.7,38.6,12.7z M52.7,30
		c-0.3,3.8-2.1,7.2-4.9,9.6c-2.6,2.2-5.8,3.4-9.2,3.4c-4.2,0-8.1-1.8-10.8-5c-5.1-5.9-4.3-14.9,1.6-19.9c2.6-2.2,5.8-3.4,9.2-3.4
		c4.2,0,8.1,1.8,10.8,5C51.8,22.5,53,26.2,52.7,30z"/>
	<path fill="#1A1A18" d="M18.1,48.6c0.5,0,0.9-0.2,1.3-0.5c0.8-0.7,0.9-2,0.2-2.8c-4.3-5.1-6.5-11.6-5.9-18.3
		c0.5-6.7,3.6-12.7,8.7-17.1C33,1,48.9,2.3,57.9,12.8c0.7,0.8,2,0.9,2.8,0.2c0.8-0.7,0.9-2,0.2-2.8C50.5-2,32.1-3.5,19.9,6.9
		C14,12,10.4,19,9.7,26.7c-0.6,7.7,1.8,15.3,6.9,21.2C17,48.4,17.6,48.6,18.1,48.6z"/>
	<path fill="#1A1A18" d="M426.8,57.5c-7.9,0-14.3,6.4-14.3,14.2c0,7.9,6.4,14.2,14.3,14.2c7.9,0,14.3-6.4,14.3-14.2
		C441.1,63.9,434.7,57.5,426.8,57.5z M426.8,82c-5.7,0-10.3-4.6-10.3-10.2c0-5.6,4.6-10.2,10.3-10.2c5.7,0,10.3,4.6,10.3,10.2
		C437.1,77.4,432.5,82,426.8,82z"/>
	<path fill="#1A1A18" d="M374.4,59.1c-0.6,0-1,0.4-1,1c0,0.6,0.4,1,1,1c5,0,8.7,5,8.8,9.5c0.1,2.8-1,5.8-2.9,7.7
		c-1.5,1.5-3.3,2.3-5.3,2.3H351c-0.6,0-1,0.4-1,1c0,0.6,0.4,1,1,1h23.9c2.6,0,4.9-1,6.8-2.9c2.3-2.3,3.5-5.7,3.4-9.1
		C385,65.2,380.5,59.1,374.4,59.1z"/>
	<path fill="#1A1A18" d="M36,381.1c-0.6,0-1,0.4-1,1v24.4c0,2.6-0.8,4.7-2.2,6.1c-1.4,1.3-3.3,2-5.6,2c-5.1-0.1-7.4-4.6-7.4-8.9
		c0-0.6-0.4-1-1-1c-0.6,0-1,0.4-1,1c0,6.3,3.8,10.8,9.4,10.9c0.1,0,0.2,0,0.4,0c2.7,0,5-0.9,6.7-2.5c1.9-1.8,2.8-4.4,2.8-7.6v-24.4
		C37,381.5,36.6,381.1,36,381.1z"/>
	<path fill="#1A1A18" d="M828.2,16.6c-2.9-2.5-6.6-3.8-10.5-3.8c-4.7,0-9.2,2.1-12.3,5.7c-2.8,3.3-4.1,7.4-3.8,11.7
		c0.3,4.3,2.3,8.2,5.6,11c2.9,2.5,6.6,3.8,10.5,3.8c4.7,0,9.2-2.1,12.3-5.7C835.8,32.5,835,22.3,828.2,16.6z M828.5,38
		c-2.7,3.2-6.6,5-10.8,5c-3.4,0-6.6-1.2-9.2-3.4c-2.9-2.4-4.6-5.9-4.9-9.6c-0.3-3.8,0.9-7.4,3.3-10.3c2.7-3.2,6.6-5,10.8-5
		c3.4,0,6.6,1.2,9.2,3.4C832.8,23.1,833.5,32.1,828.5,38z"/>
	<path fill="#1A1A18" d="M798.4,12.8c9-10.5,24.9-11.8,35.4-2.8c5.1,4.3,8.2,10.4,8.7,17.1s-1.6,13.2-5.9,18.3
		c-0.7,0.8-0.6,2.1,0.2,2.8c0.4,0.3,0.8,0.5,1.3,0.5c0.6,0,1.1-0.2,1.5-0.7c5-5.9,7.5-13.4,6.9-21.2c-0.6-7.7-4.2-14.8-10.1-19.8
		c-12.2-10.4-30.6-8.9-41.1,3.3c-0.7,0.8-0.6,2.1,0.2,2.8C796.4,13.7,797.7,13.6,798.4,12.8z"/>
	<path fill="#1A1A18" d="M833,268.7v-23.4c0-49.9-18.1-96.2-51.1-130.6l44.8-56.2c0.7-0.9,0.5-2.1-0.3-2.8c-0.9-0.7-2.1-0.5-2.8,0.3
		l-44.5,55.8c-10.9-10.9-23.1-20.3-36.2-28l45.8-57.3c0.7-0.9,0.5-2.1-0.3-2.8c-0.9-0.7-2.1-0.5-2.8,0.3l-46.2,57.8
		c-27.2-15.1-58.4-23.1-91.2-23.1H531.5c-4.3-7.2-12.1-12-21.1-12H337.6c-9,0-16.8,4.8-21.1,12H208.1c-32.5,0-63.9,7.8-91.8,22.3
		L70.7,24c-0.7-0.9-1.9-1-2.8-0.3c-0.9,0.7-1,1.9-0.3,2.8l45.1,56.4c-13.3,7.3-25.9,16.2-37.3,26.6L32.7,55.9
		c-0.7-0.9-1.9-1-2.8-0.3c-0.9,0.7-1,1.9-0.3,2.8l42.9,53.9c-0.1,0.1-0.2,0.2-0.3,0.3C35.3,147.7,15,194.8,15,245.3v23.5
		c-8.3,4-14,12.5-14,22.2v124.3C1,428.9,12.1,440,25.7,440h2.6c13.6,0,24.7-11.1,24.7-24.7V291c0-9.8-5.7-18.2-14-22.2v-18
		C39,158,117.8,82.6,214.7,82.6h100.7c4,8.3,12.4,14,22.2,14h172.9c9.8,0,18.2-5.7,22.2-14h108.9c45.9,0,88.2,17.2,119.3,48.5
		c31,31.2,48.1,73.7,48.1,119.7V269c-8.2,4.2-14,12.8-14,22.4v124.3c0,13.4,11.3,24.2,25.2,24.2h2.6c13.6,0,24.2-10.6,24.2-24.2
		V291.4C847,281.4,841.3,272.7,833,268.7z M115.3,86.2l11.6,14.4c-13.6,7.3-26.2,16.3-37.3,26.7L78,112.8
		C89.3,102.5,101.8,93.6,115.3,86.2z M49,291v124.3c0,11.4-9.3,20.7-20.7,20.7h-2.6C14.3,436,5,426.7,5,415.3V291
		c0-7.5,4-14,10-17.7v116.8c0,1.1,0.9,2,2,2s2-0.9,2-2V271.4c2.1-0.7,4.4-1.1,6.7-1.1h2.6c2.4,0,4.6,0.4,6.7,1.1v94.7
		c0,1.1,0.9,2,2,2c1.1,0,2-0.9,2-2v-92.8C45,276.9,49,283.5,49,291z M35,250.8v16.5c-2.1-0.6-4.4-0.9-6.7-0.9h-2.6
		c-2.3,0-4.6,0.3-6.7,0.9v-22c0-50.7,21.5-96.6,56.1-129.7l11.6,14.5C54.7,161.2,35,203.8,35,250.8z M214.7,78.6
		c-30.4,0-59.1,7.3-84.3,20.1c0-0.1-0.1-0.1-0.1-0.2l-11.4-14.3c26.6-13.8,56.9-21.6,89.2-21.6h106.4c-1,2.7-1.5,5.5-1.5,8.5v0.9
		c0,2.3,0.3,4.5,0.9,6.5H214.7z M510.4,92.6H337.6c-7.5,0-14-4-17.6-10h15c1.1,0,2-0.9,2-2s-0.9-2-2-2h-16.9
		c-0.7-2.1-1.1-4.3-1.1-6.5v-0.9c0-3.1,0.7-5.9,1.9-8.5H359c1.1,0,2-0.9,2-2c0-1.1-0.9-2-2-2h-37.7c3.8-4.8,9.6-8,16.2-8h172.9
		c6.6,0,12.5,3.1,16.2,8H497c-1.1,0-2,0.9-2,2c0,1.1,0.9,2,2,2h32.1c1.2,2.6,1.9,5.5,1.9,8.5v0.9c0,2.3-0.4,4.5-1.1,6.5H521
		c-1.1,0-2,0.9-2,2s0.9,2,2,2h7C524.5,88.6,517.9,92.6,510.4,92.6z M534.1,78.6c0.6-2.1,0.9-4.3,0.9-6.5v-0.9c0-3-0.5-5.9-1.5-8.5
		h114.7c31.9,0,62.1,7.7,88.6,22.3l-10.9,13.6c-0.3,0.3-0.4,0.7-0.4,1.1c-25.1-13.7-53.8-21-84-21H534.1z M728.7,101.4
		c0.1-0.1,0.3-0.2,0.4-0.4l11.3-14.1c13.2,7.6,25.4,17,36.3,27.9l-11,13.7c-0.3,0.4-0.4,0.8-0.4,1.2c-0.5-0.5-1-1-1.5-1.5
		C753.2,117.7,741.4,108.7,728.7,101.4z M767.1,131.8C767.1,131.8,767.2,131.8,767.1,131.8c0.7,0,1.2-0.2,1.6-0.7l10.6-13.3
		c32,33.7,49.6,78.8,49.6,127.5v21.9c-2-0.6-4.1-0.8-6.2-0.8h-2.6c-2.5,0-4.9,0.4-7.2,1.1v-16.7C813,205.5,796.7,163.4,767.1,131.8z
		 M843,415.8c0,11.4-8.9,20.2-20.2,20.2h-2.6c-11.7,0-21.2-9.1-21.2-20.2V291.4c0-7.4,4-14,10-17.8v92.5c0,1.1,0.9,2,2,2s2-0.9,2-2
		v-94.5c2.3-0.8,4.7-1.3,7.2-1.3h2.6c2.2,0,4.3,0.4,6.2,1v118.8c0,1.1,0.9,2,2,2s2-0.9,2-2V273.2c6,3.7,10,10.4,10,18.2V415.8z"/>
	<path fill="#1A1A18" d="M505,80.6h-23.7c-2,0-3.9-0.8-5.4-2.3c-1.9-1.9-3-4.8-2.9-7.7c0.1-4.5,3.7-9.5,8.7-9.5c0.6,0,1-0.4,1-1
		c0-0.6-0.4-1-1-1c-6.1,0-10.6,6-10.7,11.5c-0.1,3.4,1.2,6.8,3.5,9.1c1.9,1.9,4.2,2.9,6.8,2.9H505c0.6,0,1-0.4,1-1
		C506,81.1,505.6,80.6,505,80.6z"/>
	<path fill="#1A1A18" d="M830.8,404.7c-0.6,0-1,0.4-1,1c0,5-3.5,8.8-8.1,8.9c-2.6,0.1-4.8-0.7-6.3-2.3c-1.5-1.5-2.3-3.5-2.3-5.8
		v-24.4c0-0.6-0.4-1-1-1s-1,0.4-1,1v24.4c0,2.9,1,5.4,2.9,7.3c1.9,1.8,4.5,2.8,7.4,2.8c0.1,0,0.2,0,0.4,0
		c5.7-0.2,10.1-4.9,10.1-10.9C831.8,405.1,831.3,404.7,830.8,404.7z"/>
</g>
</svg>
